module thehighscore

go 1.17

require (
	github.com/gorilla/handlers v1.5.1
	github.com/gorilla/mux v1.8.0
)

require (
	github.com/felixge/httpsnoop v1.0.1 // indirect
	github.com/rs/cors v1.8.0 // indirect
)
